\relax 
\providecommand\hyper@newdestlabel[2]{}
\providecommand\zref@newlabel[2]{}
\@nameuse{bbl@beforestart}
\catcode `"\active 
\catcode `<\active 
\catcode `>\active 
\@nameuse{es@quoting}
\providecommand\HyperFirstAtBeginDocument{\AtBeginDocument}
\HyperFirstAtBeginDocument{\ifx\hyper@anchor\@undefined
\global\let\oldcontentsline\contentsline
\gdef\contentsline#1#2#3#4{\oldcontentsline{#1}{#2}{#3}}
\global\let\oldnewlabel\newlabel
\gdef\newlabel#1#2{\newlabelxx{#1}#2}
\gdef\newlabelxx#1#2#3#4#5#6{\oldnewlabel{#1}{{#2}{#3}}}
\AtEndDocument{\ifx\hyper@anchor\@undefined
\let\contentsline\oldcontentsline
\let\newlabel\oldnewlabel
\fi}
\fi}
\global\let\hyper@last\relax 
\gdef\HyperFirstAtBeginDocument#1{#1}
\providecommand\HyField@AuxAddToFields[1]{}
\providecommand\HyField@AuxAddToCoFields[2]{}
\babel@aux{spanish}{}
\gdef \LT@i {\LT@entry 
    {1}{79.33405pt}\LT@entry 
    {1}{56.76054pt}\LT@entry 
    {1}{234.18922pt}\LT@entry 
    {1}{78.93405pt}}
\gdef \LT@ii {\LT@entry 
    {1}{114.82114pt}\LT@entry 
    {1}{56.76054pt}\LT@entry 
    {1}{278.54977pt}}
\gdef \LT@iii {\LT@entry 
    {1}{447.50499pt}}
\@writefile{toc}{\contentsline {chapter}{\numberline {1}Introducción}{1}{chapter.1}\protected@file@percent }
\@writefile{lof}{\addvspace {10\p@ }}
\@writefile{lot}{\addvspace {10\p@ }}
\newlabel{chp:introduccion}{{1}{1}{Introducción}{chapter.1}{}}
\newlabel{sec:introduccion}{{1}{1}{Introducción}{chapter.1}{}}
\@writefile{toc}{\contentsline {section}{\numberline {1.1}Objetivo del documento}{1}{section.1.1}\protected@file@percent }
\newlabel{gls:Objetivo del documento}{{1.1}{1}{Objetivo del documento}{section.1.1}{}}
\@writefile{toc}{\contentsline {section}{\numberline {1.2}Estructura del documento}{1}{section.1.2}\protected@file@percent }
\newlabel{gls:Estructura del documento}{{1.2}{1}{Estructura del documento}{section.1.2}{}}
\@writefile{toc}{\contentsline {chapter}{\numberline {2}Modelo de negocio}{3}{chapter.2}\protected@file@percent }
\@writefile{lof}{\addvspace {10\p@ }}
\@writefile{lot}{\addvspace {10\p@ }}
\newlabel{chp:modeloNegocios}{{2}{3}{Modelo de negocio}{chapter.2}{}}
\@writefile{toc}{\contentsline {section}{\numberline {2.1}Reglas de negocio}{3}{section.2.1}\protected@file@percent }
\@writefile{toc}{\contentsline {subsection}{\numberline {2.1.1}Reglas derivadas del sistema}{3}{subsection.2.1.1}\protected@file@percent }
\@writefile{toc}{\contentsline {subsubsection}{RN-1 Definición de producto}{3}{section*.2}\protected@file@percent }
\@writefile{toc}{\contentsline {subsubsection}{RN-2 Formato de codigo de barras.}{4}{section*.3}\protected@file@percent }
\@writefile{toc}{\contentsline {subsubsection}{RN-3 Venta con receta médica.}{4}{section*.4}\protected@file@percent }
\@writefile{toc}{\contentsline {subsubsection}{RN-4 Venta con receta médica.}{4}{section*.5}\protected@file@percent }
\@writefile{toc}{\contentsline {subsubsection}{RN-5 Correo vàlido.}{4}{section*.6}\protected@file@percent }
\@writefile{toc}{\contentsline {subsubsection}{RN-6 Correo vàlido.}{5}{section*.7}\protected@file@percent }
\@writefile{toc}{\contentsline {chapter}{\numberline {3}Pantallas}{7}{chapter.3}\protected@file@percent }
\@writefile{lof}{\addvspace {10\p@ }}
\@writefile{lot}{\addvspace {10\p@ }}
\newlabel{chp:pantallas}{{3}{7}{Pantallas}{chapter.3}{}}
\@writefile{toc}{\contentsline {chapter}{\numberline {4}Modelo de comportamiento}{9}{chapter.4}\protected@file@percent }
\@writefile{lof}{\addvspace {10\p@ }}
\@writefile{lot}{\addvspace {10\p@ }}
\newlabel{chp:modeloComportamiento}{{4}{9}{Modelo de comportamiento}{chapter.4}{}}
